%YAML 1.1
%TAG !u! tag:unity3d.com,2011:
--- !u!1001 &100100000
Prefab:
  m_ObjectHideFlags: 1
  serializedVersion: 2
  m_Modification:
    m_TransformParent: {fileID: 0}
    m_Modifications: []
    m_RemovedComponents: []
  m_ParentPrefab: {fileID: 0}
  m_RootGameObject: {fileID: 1103707826719914}
  m_IsPrefabParent: 1
--- !u!1 &1103707826719914
GameObject:
  m_ObjectHideFlags: 0
  m_PrefabParentObject: {fileID: 0}
  m_PrefabInternal: {fileID: 100100000}
  serializedVersion: 5
  m_Component:
  - component: {fileID: 4148720855997346}
  - component: {fileID: 212359121545618856}
  - component: {fileID: 50025797531012392}
  - component: {fileID: 233694082223903142}
  - component: {fileID: 114074994792253762}
  - component: {fileID: 60888834500191150}
  - component: {fileID: 114550813705753846}
  - component: {fileID: 114045043915234000}
  m_Layer: 10
  m_Name: PalhetaBolinhasVerde_Rigth
  m_TagString: BotRigth
  m_Icon: {fileID: 0}
  m_NavMeshLayer: 0
  m_StaticEditorFlags: 0
  m_IsActive: 1
--- !u!4 &4148720855997346
Transform:
  m_ObjectHideFlags: 1
  m_PrefabParentObject: {fileID: 0}
  m_PrefabInternal: {fileID: 100100000}
  m_GameObject: {fileID: 1103707826719914}
  m_LocalRotation: {x: 0, y: 0, z: 0, w: 1}
  m_LocalPosition: {x: -1.1705606, y: -7.8891993, z: 0}
  m_LocalScale: {x: -1, y: 1, z: 1}
  m_Children: []
  m_Father: {fileID: 0}
  m_RootOrder: 0
  m_LocalEulerAnglesHint: {x: 0, y: 0, z: 0}
--- !u!50 &50025797531012392
Rigidbody2D:
  serializedVersion: 4
  m_ObjectHideFlags: 1
  m_PrefabParentObject: {fileID: 0}
  m_PrefabInternal: {fileID: 100100000}
  m_GameObject: {fileID: 1103707826719914}
  m_BodyType: 0
  m_Simulated: 1
  m_UseFullKinematicContacts: 0
  m_UseAutoMass: 0
  m_Mass: 21
  m_LinearDrag: 0
  m_AngularDrag: 0.05
  m_GravityScale: 1
  m_Material: {fileID: 0}
  m_Interpolate: 0
  m_SleepingMode: 1
  m_CollisionDetection: 1
  m_Constraints: 0
--- !u!60 &60888834500191150
PolygonCollider2D:
  m_ObjectHideFlags: 1
  m_PrefabParentObject: {fileID: 0}
  m_PrefabInternal: {fileID: 100100000}
  m_GameObject: {fileID: 1103707826719914}
  m_Enabled: 1
  m_Density: 1
  m_Material: {fileID: 0}
  m_IsTrigger: 0
  m_UsedByEffector: 0
  m_UsedByComposite: 0
  m_Offset: {x: 0, y: 0}
  m_SpriteTilingProperty:
    border: {x: 0, y: 0, z: 0, w: 0}
    pivot: {x: 0.20831703, y: 0.48728344}
    oldSize: {x: 2.23, y: 1.55}
    newSize: {x: 2.51, y: 1.03}
    adaptiveTilingThreshold: 0.5
    drawMode: 0
    adaptiveTiling: 0
  m_AutoTiling: 0
  m_Points:
    m_Paths:
    - - {x: 0.655453, y: -0.2452893}
      - {x: 0.76545304, y: -0.2252893}
      - {x: 0.865453, y: -0.2052893}
      - {x: 1.155453, y: -0.1452893}
      - {x: 1.525453, y: -0.0752893}
      - {x: 1.645453, y: 0.014710693}
      - {x: 1.665453, y: 0.07471069}
      - {x: 1.675453, y: 0.124710694}
      - {x: 1.675453, y: 0.14471069}
      - {x: 1.635453, y: 0.2347107}
      - {x: 1.595453, y: 0.27471069}
      - {x: 1.475453, y: 0.3347107}
      - {x: 0.04545303, y: 0.3347107}
      - {x: -0.034546968, y: 0.3247107}
      - {x: -0.19454697, y: 0.2947107}
      - {x: -0.33454695, y: 0.17471069}
      - {x: -0.37454695, y: 0.054710694}
      - {x: -0.37454695, y: -0.055289306}
      - {x: -0.34454697, y: -0.1352893}
      - {x: -0.31454697, y: -0.2052893}
      - {x: -0.22454697, y: -0.3052893}
      - {x: -0.11454696, y: -0.3452893}
      - {x: 0.08545303, y: -0.3452893}
      - {x: 0.15545303, y: -0.3352893}
      - {x: 0.43545303, y: -0.2852893}
      - {x: 0.605453, y: -0.2552893}
--- !u!114 &114045043915234000
MonoBehaviour:
  m_ObjectHideFlags: 1
  m_PrefabParentObject: {fileID: 0}
  m_PrefabInternal: {fileID: 100100000}
  m_GameObject: {fileID: 1103707826719914}
  m_Enabled: 1
  m_EditorHideFlags: 0
  m_Script: {fileID: 11500000, guid: aba7e3fe3ee7e7b40a80118402badd74, type: 3}
  m_Name: 
  m_EditorClassIdentifier: 
  pa: {fileID: 114074994792253762}
--- !u!114 &114074994792253762
MonoBehaviour:
  m_ObjectHideFlags: 1
  m_PrefabParentObject: {fileID: 0}
  m_PrefabInternal: {fileID: 100100000}
  m_GameObject: {fileID: 1103707826719914}
  m_Enabled: 1
  m_EditorHideFlags: 0
  m_Script: {fileID: 11500000, guid: c46a763644a1f7046a4129a15f6015d4, type: 3}
  m_Name: 
  m_EditorClassIdentifier: 
  rightFlipperRigid: {fileID: 0}
  torqueForce: 15000
  player: 0
  multiplayerOnline: 0
  pivot: {fileID: 0}
--- !u!114 &114550813705753846
MonoBehaviour:
  m_ObjectHideFlags: 1
  m_PrefabParentObject: {fileID: 0}
  m_PrefabInternal: {fileID: 100100000}
  m_GameObject: {fileID: 1103707826719914}
  m_Enabled: 1
  m_EditorHideFlags: 0
  m_Script: {fileID: 11500000, guid: 16e34e1a8d7a79d4eb302d7b37fedf3e, type: 3}
  m_Name: 
  m_EditorClassIdentifier: 
  ball: {fileID: 1278485932736472, guid: 12f7d14c95c7b4546a329285bc2be4ac, type: 2}
  ballDup: {fileID: 0}
--- !u!212 &212359121545618856
SpriteRenderer:
  m_ObjectHideFlags: 1
  m_PrefabParentObject: {fileID: 0}
  m_PrefabInternal: {fileID: 100100000}
  m_GameObject: {fileID: 1103707826719914}
  m_Enabled: 1
  m_CastShadows: 0
  m_ReceiveShadows: 0
  m_MotionVectors: 1
  m_LightProbeUsage: 1
  m_ReflectionProbeUsage: 1
  m_Materials:
  - {fileID: 10754, guid: 0000000000000000f000000000000000, type: 0}
  m_StaticBatchInfo:
    firstSubMesh: 0
    subMeshCount: 0
  m_StaticBatchRoot: {fileID: 0}
  m_ProbeAnchor: {fileID: 0}
  m_LightProbeVolumeOverride: {fileID: 0}
  m_ScaleInLightmap: 1
  m_PreserveUVs: 0
  m_IgnoreNormalsForChartDetection: 0
  m_ImportantGI: 0
  m_SelectedEditorRenderState: 0
  m_MinimumChartSize: 4
  m_AutoUVMaxDistance: 0.5
  m_AutoUVMaxAngle: 89
  m_LightmapParameters: {fileID: 0}
  m_SortingLayerID: 0
  m_SortingLayer: 0
  m_SortingOrder: 4
  m_Sprite: {fileID: 21300000, guid: 4106e2dbf493f554db6c99317f1a4281, type: 3}
  m_Color: {r: 1, g: 1, b: 1, a: 1}
  m_FlipX: 0
  m_FlipY: 0
  m_DrawMode: 0
  m_Size: {x: 2.51, y: 1.03}
  m_AdaptiveModeThreshold: 0.5
  m_SpriteTileMode: 0
  m_WasSpriteAssigned: 1
--- !u!233 &233694082223903142
HingeJoint2D:
  m_ObjectHideFlags: 1
  m_PrefabParentObject: {fileID: 0}
  m_PrefabInternal: {fileID: 100100000}
  m_GameObject: {fileID: 1103707826719914}
  m_Enabled: 1
  serializedVersion: 4
  m_EnableCollision: 1
  m_ConnectedRigidBody: {fileID: 0}
  m_BreakForce: Infinity
  m_BreakTorque: Infinity
  m_AutoConfigureConnectedAnchor: 1
  m_Anchor: {x: 0, y: 0}
  m_ConnectedAnchor: {x: -1.1705606, y: -7.8891993}
  m_UseMotor: 0
  m_Motor:
    m_MotorSpeed: -1000
    m_MaximumMotorForce: 10000
  m_UseLimits: 1
  m_AngleLimits:
    m_LowerAngle: -25
    m_UpperAngle: 25
