%YAML 1.1
%TAG !u! tag:unity3d.com,2011:
--- !u!78 &1
TagManager:
  serializedVersion: 2
  tags:
  - Goleiro
  - PontoVermelho
  - PontoVerde
  - BotLeft
  - BotRigth
  - encaixe
  - GoleiroPlayer
  - GoleiroBot
  - ExitRigth
  - ExitLeft
  - Data
  - Undefined
  - Bola
  - Palheta
  - PalhetaLeft
  - PalhetaRigth
  - Arena
  - PanelConfirm
  - TextBuy
  - BolaDupla
  - Virar
  - CamadaGelo
  - p
  - g
  - cm
  - jogadorDeBaixo
  - jogadorDeCima
  layers:
  - Default
  - TransparentFX
  - Ignore Raycast
  - 
  - Water
  - UI
  - 
  - 
  - cenario
  - goleiro
  - palheta
  - w
  - pedragelo
  - bola
  - camadaGelo
  - 
  - 
  - 
  - 
  - 
  - 
  - 
  - 
  - 
  - 
  - 
  - 
  - 
  - 
  - 
  - 
  - 
  m_SortingLayers:
  - name: Default
    uniqueID: 0
    locked: 0
